%YAML 1.1
%TAG !u! tag:unity3d.com,2011:
--- !u!114 &11400000
MonoBehaviour:
  m_ObjectHideFlags: 0
  m_CorrespondingSourceObject: {fileID: 0}
  m_PrefabInternal: {fileID: 0}
  m_GameObject: {fileID: 0}
  m_Enabled: 1
  m_EditorHideFlags: 0
  m_Script: {fileID: 11500000, guid: cdf1d910b99164c4abcac7d2b7e8afd1, type: 3}
  m_Name: GreenColourAction
  m_EditorClassIdentifier: 
  color:
    serializedVersion: 2
    rgba: 4278255360
