%YAML 1.1
%TAG !u! tag:unity3d.com,2011:
--- !u!114 &11400000
MonoBehaviour:
  m_ObjectHideFlags: 0
  m_CorrespondingSourceObject: {fileID: 0}
  m_PrefabInternal: {fileID: 0}
  m_GameObject: {fileID: 0}
  m_Enabled: 1
  m_EditorHideFlags: 0
  m_Script: {fileID: 11500000, guid: 1ec7ee4422a0962488aefec9a178ab1f, type: 3}
  m_Name: MOLECULE_BINDING
  m_EditorClassIdentifier: 
  onEnterActions:
  - {fileID: 11400000, guid: 67520eab333621e4cb773d71b02794d5, type: 2}
  - {fileID: 11400000, guid: 5e1b3285d7d38564fb72971539760527, type: 2}
  - {fileID: 11400000, guid: 6498077ec112bac46975a490a327e5af, type: 2}
  onExecuteActions: []
  onExitActions: []
  transitions: []
