%YAML 1.1
%TAG !u! tag:unity3d.com,2011:
--- !u!114 &11400000
MonoBehaviour:
  m_ObjectHideFlags: 0
  m_CorrespondingSourceObject: {fileID: 0}
  m_PrefabInternal: {fileID: 0}
  m_GameObject: {fileID: 0}
  m_Enabled: 1
  m_EditorHideFlags: 0
  m_Script: {fileID: 11500000, guid: 1ec7ee4422a0962488aefec9a178ab1f, type: 3}
  m_Name: MOLECULE_HOVERED
  m_EditorClassIdentifier: 
  onEnterActions:
  - {fileID: 11400000, guid: 8f07b95440579a04d9d9bbef101eae64, type: 2}
  onExecuteActions: []
  onExitActions: []
  transitions:
  - decision: {fileID: 11400000, guid: 62adf0c9a7d3bd54d868ca68a6cbeb3d, type: 2}
    trueState: {fileID: 11400000, guid: 003797e4e276fc54497e25d71d225c74, type: 2}
  - decision: {fileID: 11400000, guid: 6faaaa5752cc7bd4e8eac9cf4f9d85bb, type: 2}
    trueState: {fileID: 11400000, guid: 043eb7cb9a27bd344b75790b3c7538d7, type: 2}
