%YAML 1.1
%TAG !u! tag:unity3d.com,2011:
--- !u!114 &11400000
MonoBehaviour:
  m_ObjectHideFlags: 0
  m_CorrespondingSourceObject: {fileID: 0}
  m_PrefabInternal: {fileID: 0}
  m_GameObject: {fileID: 0}
  m_Enabled: 1
  m_EditorHideFlags: 0
  m_Script: {fileID: 11500000, guid: dd57cbd0f1c556344822b138d5e2372b, type: 3}
  m_Name: lac operator site
  m_EditorClassIdentifier: 
  name: lac operator site
  layerMask:
    serializedVersion: 2
    m_Bits: 512
  model: {fileID: 1200186754292932, guid: 8365e36b67d22e84b98d8d220f3cdb3d, type: 2}
  tobiiModel: {fileID: 1175115606113722, guid: b60084d15d3635847bc1c9098b297d92, type: 2}
  ligandMols:
  - {fileID: 11400000, guid: 5e83584cc17e70246aeb2e56d64fc62d, type: 2}
  bindActions:
  - {fileID: 11400000, guid: c9e6fd1c4dbf7c54a8d64bd5845f16bf, type: 2}
  - {fileID: 11400000, guid: de2f7f18f79a2094995a311e65304519, type: 2}
  - {fileID: 11400000, guid: e8f32bd4747bbea40ad46ff2b51922f5, type: 2}
  - {fileID: 11400000, guid: 4ba64c5c888853b4fa0805156d8ad411, type: 2}
  spawnActions:
  - {fileID: 11400000, guid: ccb65507283fc1a4db3349bd0ea9dab6, type: 2}
  radius: 0.5
  contrainTransform: 0
  cooldownTime: 0
  maxNumber: 1
  pool: 1
