%YAML 1.1
%TAG !u! tag:unity3d.com,2011:
--- !u!114 &11400000
MonoBehaviour:
  m_ObjectHideFlags: 0
  m_CorrespondingSourceObject: {fileID: 0}
  m_PrefabInternal: {fileID: 0}
  m_GameObject: {fileID: 0}
  m_Enabled: 1
  m_EditorHideFlags: 0
  m_Script: {fileID: 11500000, guid: dd57cbd0f1c556344822b138d5e2372b, type: 3}
  m_Name: lacI promoter unbound
  m_EditorClassIdentifier: 
  name: lacI promoter
  layerMask:
    serializedVersion: 2
    m_Bits: 512
  model: {fileID: 1398975324218108, guid: 056dbde9ee4eb2c47aacda2023329bef, type: 2}
  tobiiModel: {fileID: 1009959308636660, guid: dcbcbf561feca6a4cba0e1b3fe955ac3, type: 2}
  ligandMols: []
  bindActions: []
  spawnActions: []
  radius: 0.25
  contrainTransform: 0
  cooldownTime: 0
  maxNumber: 1
  pool: 1
