%YAML 1.1
%TAG !u! tag:unity3d.com,2011:
--- !u!114 &11400000
MonoBehaviour:
  m_ObjectHideFlags: 0
  m_CorrespondingSourceObject: {fileID: 0}
  m_PrefabInternal: {fileID: 0}
  m_GameObject: {fileID: 0}
  m_Enabled: 1
  m_EditorHideFlags: 0
  m_Script: {fileID: 11500000, guid: dd57cbd0f1c556344822b138d5e2372b, type: 3}
  m_Name: cAMP
  m_EditorClassIdentifier: 
  name: cAMP
  layerMask:
    serializedVersion: 2
    m_Bits: 512
  model: {fileID: 1453308171791770, guid: beb47042421acbb45bce5e44ae42f5fa, type: 2}
  tobiiModel: {fileID: 1775125030379392, guid: 1a7c71b3ac371a549bca9324bbe80d52, type: 2}
  ligandMols: []
  bindActions: []
  spawnActions: []
  radius: 0.5
  contrainTransform: 0
  cooldownTime: 0
  maxNumber: 20
  pool: 1
