%YAML 1.1
%TAG !u! tag:unity3d.com,2011:
--- !u!114 &11400000
MonoBehaviour:
  m_ObjectHideFlags: 0
  m_CorrespondingSourceObject: {fileID: 0}
  m_PrefabInternal: {fileID: 0}
  m_GameObject: {fileID: 0}
  m_Enabled: 1
  m_EditorHideFlags: 0
  m_Script: {fileID: 11500000, guid: dd57cbd0f1c556344822b138d5e2372b, type: 3}
  m_Name: galactose
  m_EditorClassIdentifier: 
  name: galactose
  layerMask:
    serializedVersion: 2
    m_Bits: 512
  model: {fileID: 1489951273469740, guid: f2a5c01e53e4b214e84e8955e2a964a0, type: 2}
  tobiiModel: {fileID: 1888160578866328, guid: 798cf9a57ec5d3846aabc51a00397b02, type: 2}
  ligandMols: []
  bindActions: []
  spawnActions: []
  radius: 0.5
  contrainTransform: 0
  cooldownTime: 0
  maxNumber: 10
  pool: 1
