%YAML 1.1
%TAG !u! tag:unity3d.com,2011:
--- !u!114 &11400000
MonoBehaviour:
  m_ObjectHideFlags: 0
  m_CorrespondingSourceObject: {fileID: 0}
  m_PrefabInternal: {fileID: 0}
  m_GameObject: {fileID: 0}
  m_Enabled: 1
  m_EditorHideFlags: 0
  m_Script: {fileID: 11500000, guid: dd57cbd0f1c556344822b138d5e2372b, type: 3}
  m_Name: lac I repressor active
  m_EditorClassIdentifier: 
  name: lac I repressor
  layerMask:
    serializedVersion: 2
    m_Bits: 512
  model: {fileID: 1922323708434760, guid: c4f37bf372684434099e0affa06ad329, type: 2}
  tobiiModel: {fileID: 1353128660989274, guid: de74f88c731526149a3aed6491839e99, type: 2}
  ligandMols:
  - {fileID: 11400000, guid: f7831ac9ee3f2804980eeae58f35a996, type: 2}
  bindActions:
  - {fileID: 11400000, guid: a3311377ad65aa3478353b8f21bedfb4, type: 2}
  - {fileID: 11400000, guid: 338500e0c815bff4096b9946b30dd773, type: 2}
  - {fileID: 11400000, guid: 13672c7bc78ad7b4bbd63078171d6463, type: 2}
  spawnActions: []
  radius: 0.5
  contrainTransform: 0
  cooldownTime: 0
  maxNumber: 10
  pool: 1
