%YAML 1.1
%TAG !u! tag:unity3d.com,2011:
--- !u!114 &11400000
MonoBehaviour:
  m_ObjectHideFlags: 0
  m_CorrespondingSourceObject: {fileID: 0}
  m_PrefabInternal: {fileID: 0}
  m_GameObject: {fileID: 0}
  m_Enabled: 1
  m_EditorHideFlags: 0
  m_Script: {fileID: 11500000, guid: 1ec7ee4422a0962488aefec9a178ab1f, type: 3}
  m_Name: ActiveState
  m_EditorClassIdentifier: 
  onEnterActions:
  - {fileID: 11400000, guid: 839b97c107d56af42bae6066d04774ea, type: 2}
  onExecuteActions: []
  onExitActions: []
  transitions:
  - decision: {fileID: 11400000, guid: 3eaacf373b126d740b06e72bff023628, type: 2}
    trueState: {fileID: 11400000, guid: 091bc676ab031094ba1d2d4e916903c7, type: 2}
